{
    "KPlugin": {
        "Authors": [
            {
                "Email": "mart@kde.org",
                "Name": "Marco Martin",
                "Name[az]": "Marco Martin",
                "Name[bg]": "Marco Martin",
                "Name[ca@valencia]": "Marco Martin",
                "Name[ca]": "Marco Martin",
                "Name[cs]": "Marco Martin",
                "Name[en_GB]": "Marco Martin",
                "Name[es]": "Marco Martin",
                "Name[eu]": "Marco Martin",
                "Name[fi]": "Marco Martin",
                "Name[fr]": "Marco Martin",
                "Name[ia]": "Marco Martin",
                "Name[id]": "Marco Martin",
                "Name[it]": "Marco Martin",
                "Name[ka]": "Marco Martin",
                "Name[ko]": "Marco Martin",
                "Name[nl]": "Marco Martin",
                "Name[nn]": "Marco Martin",
                "Name[pl]": "Marco Martin",
                "Name[pt]": "Marco Martin",
                "Name[pt_BR]": "Marco Martin",
                "Name[ru]": "Marco Martin",
                "Name[sl]": "Marco Martin",
                "Name[sv]": "Marco Martin",
                "Name[tr]": "Marco Martin",
                "Name[uk]": "Marco Martin",
                "Name[vi]": "Marco Martin",
                "Name[x-test]": "xxMarco Martinxx",
                "Name[zh_CN]": "Marco Martin"
            }
        ],
        "Category": "",
        "Id": "org.kde.example.configuration",
        "License": "GPLv2+",
        "Name": "Configuration test",
        "Name[az]": "Tənzimləmə testi",
        "Name[bg]": "Тест на настройките",
        "Name[ca@valencia]": "Prova de configuració",
        "Name[ca]": "Prova de configuració",
        "Name[cs]": "Test nastavení",
        "Name[en_GB]": "Configuration test",
        "Name[es]": "Prueba de configuración",
        "Name[eu]": "Konfigurazio-proba",
        "Name[fi]": "Asetustesti",
        "Name[fr]": "Test de configuration",
        "Name[ia]": "Prova de configuration",
        "Name[id]": "Pengujian konfigurasi",
        "Name[it]": "Prova di configurazione",
        "Name[ka]": "კონფიგურაციის ტესტი",
        "Name[ko]": "설정 테스트",
        "Name[nl]": "Test van instellingen",
        "Name[nn]": "Oppsett-test",
        "Name[pl]": "Próba ustawień",
        "Name[pt]": "Teste de configuração",
        "Name[pt_BR]": "Teste de configuração",
        "Name[ru]": "Тест конфигурации",
        "Name[sl]": "Preizkus konfiguracije",
        "Name[sv]": "Inställningstest",
        "Name[tr]": "Yapılandırma Sınaması",
        "Name[uk]": "Перевірка налаштувань",
        "Name[vi]": "Kiểm thử cấu hình",
        "Name[x-test]": "xxConfiguration testxx",
        "Name[zh_CN]": "配置测试",
        "ServiceTypes": [
            "Plasma/Applet"
        ],
        "Version": "",
        "Website": ""
    },
    "Keywords": "",
    "X-KDE-ParentApp": "",
    "X-Plasma-API": "declarativeappletscript",
    "X-Plasma-MainScript": "ui/main.qml"
}
